Midterm Project
…
## # A tibble: 1 × 3
##       n cases  prev
##   <int> <int> <dbl>
## 1  1220   393 0.322

df

## # A tibble: 1,221 × 15
##    sex     age age_group eop_size_mm eop_size eop_visibility_classif…¹ eop_shape
##    <chr> <dbl> <chr>           <dbl>    <dbl> <chr>                        <dbl>
##  1 1        18 2                14.8        2 2                                3
##  2 1        26 2                17.1        3 2                                3
##  3 0        22 2                 0          0 1                                0
##  4 1        20 2                23.9        4 2                                1
##  5 0        27 2                 0          0 0                                0
##  6 0        28 2                 7.9        1 2                                2
##  7 0        17 1                 6.4        1 2                                1
##  8 1        21 2                 9.4        1 2                                2
##  9 0        25 2                 0          0 0                                0
## 10 1        30 2                16.5        3 2                                2
## # ℹ 1,211 more rows
## # ℹ abbreviated name: ¹​eop_visibility_classification
## # ℹ 8 more variables: fhp_size_mm <dbl>, fhp_category <chr>, sex_name <chr>,
## #   eop_visi_class <chr>, age_group_name <chr>, eop_size_group <chr>,
## #   fhp_category_group <chr>, eop_enlarged <chr>
…
