Project 3
…
Illustration

For example, user 135672 placed order 472890 on day 6 (Saturday) at 3
p.m.. One of the products in this order was “Organic Baby Spinach”,
which belongs to the produce department. This item was not reordered
from a previous purchase (reordered = 0), indicating that it was likely
a new addition to the user’s cart.

Import data and clean names

data("instacart")
instacart |> 
  janitor::clean_names()

## # A tibble: 1,384,617 × 15
##    order_id product_id add_to_cart_order reordered user_id eval_set order_number
##       <int>      <int>             <int>     <int>   <int> <chr>           <int>
##  1        1      49302                 1         1  112108 train               4
##  2        1      11109                 2         1  112108 train               4
##  3        1      10246                 3         0  112108 train               4
##  4        1      49683                 4         0  112108 train               4
##  5        1      43633                 5         1  112108 train               4
##  6        1      13176                 6         0  112108 train               4
##  7        1      47209                 7         0  112108 train               4
##  8        1      22035                 8         1  112108 train               4
##  9       36      39612                 1         0   79431 train              23
## 10       36      19660                 2         1   79431 train              23
## # ℹ 1,384,607 more rows
## # ℹ 8 more variables: order_dow <int>, order_hour_of_day <int>,
## #   days_since_prior_order <int>, product_name <chr>, aisle_id <int>,
## #   department_id <int>, aisle <chr>, department <chr>
…
Aisle

134

unique aisles in the store

This code is for the most popular merchandise

count_aisle <- instacart |> 
  count(aisle, sort = TRUE)

count_aisle

## # A tibble: 134 × 2
##    aisle                              n
##    <chr>                          <int>
##  1 fresh vegetables              150609
##  2 fresh fruits                  150473
##  3 packaged vegetables fruits     78493
##  4 yogurt                         55240
##  5 packaged cheese                41699
##  6 water seltzer sparkling water  36617
##  7 milk                           32644
##  8 chips pretzels                 31269
##  9 soy lactosefree                26240
## 10 bread                          23635
## # ℹ 124 more rows
…
count_aisle

## # A tibble: 134 × 2
##    aisle                              n
##    <chr>                          <int>
##  1 fresh vegetables              150609
##  2 fresh fruits                  150473
##  3 packaged vegetables fruits     78493
##  4 yogurt                         55240
##  5 packaged cheese                41699
##  6 water seltzer sparkling water  36617
##  7 milk                           32644
##  8 chips pretzels                 31269
##  9 soy lactosefree                26240
## 10 bread                          23635
## # ℹ 124 more rows
…
Final_tidy data

final_tidy<-
  left_join(zip_zori_data, zip_data, by = "zip_code")
final_tidy

## # A tibble: 17,284 × 13
##    region_id size_rank zip_code region_type state_name state city     metro     
##        <dbl>     <dbl>    <dbl> <chr>       <chr>      <chr> <chr>    <chr>     
##  1     62080         4    11368 zip         NY         NY    New York New York-…
##  2     62080         4    11368 zip         NY         NY    New York New York-…
##  3     62080         4    11368 zip         NY         NY    New York New York-…
##  4     62080         4    11368 zip         NY         NY    New York New York-…
##  5     62080         4    11368 zip         NY         NY    New York New York-…
##  6     62080         4    11368 zip         NY         NY    New York New York-…
##  7     62080         4    11368 zip         NY         NY    New York New York-…
##  8     62080         4    11368 zip         NY         NY    New York New York-…
##  9     62080         4    11368 zip         NY         NY    New York New York-…
## 10     62080         4    11368 zip         NY         NY    New York New York-…
## # ℹ 17,274 more rows
## # ℹ 5 more variables: month <date>, price <dbl>, year <date>, borough <chr>,
## #   neighborhood <chr>

Count zips for the question

zip_count <- final_tidy |> 
  count(zip_code) |> 
  rename(n_obs = n)
zip_count

## # A tibble: 149 × 2
##    zip_code n_obs
##       <dbl> <int>
##  1    10001   116
##  2    10002   116
##  3    10003   116
##  4    10004   116
##  5    10005   116
##  6    10006   116
##  7    10007   116
##  8    10009   116
##  9    10010   116
## 10    10011   116
## # ℹ 139 more rows
…
Calculate the average rent for each borough and year (1st step)

borough_year_avg <- final_tidy |>
  group_by(borough, year) |>
  summarize(avg_rent = mean(price, na.rm = TRUE)) |>
  arrange(borough, year) 

## `summarise()` has grouped output by 'borough'. You can override using the
## `.groups` argument.

borough_year_avg

## # A tibble: 50 × 3
## # Groups:   borough [5]
##    borough year       avg_rent
##    <chr>   <date>        <dbl>
##  1 Bronx   2015-01-01    1760.
##  2 Bronx   2016-01-01    1520.
##  3 Bronx   2017-01-01    1544.
##  4 Bronx   2018-01-01    1639.
##  5 Bronx   2019-01-01    1706.
##  6 Bronx   2020-01-01    1811.
##  7 Bronx   2021-01-01    1858.
##  8 Bronx   2022-01-01    2054.
##  9 Bronx   2023-01-01    2285.
## 10 Bronx   2024-01-01    2497.
## # ℹ 40 more rows
…
Mapping ZIP-level rent distribution in 2023 (1st step)

zip_2023 <- final_tidy |>
  filter(year == "2023-01-01") |>
  group_by(borough, zip_code) |>
  summarize(zip_avg_2023 = mean(price, na.rm = TRUE)) 

## `summarise()` has grouped output by 'borough'. You can override using the
## `.groups` argument.

zip_2023

## # A tibble: 149 × 3
## # Groups:   borough [5]
##    borough zip_code zip_avg_2023
##    <chr>      <dbl>        <dbl>
##  1 Bronx      10451        2840.
##  2 Bronx      10452        2223.
##  3 Bronx      10453         NaN 
##  4 Bronx      10454        2655.
##  5 Bronx      10455         NaN 
##  6 Bronx      10456         NaN 
##  7 Bronx      10457        2303.
##  8 Bronx      10458        1664.
##  9 Bronx      10459         NaN 
## 10 Bronx      10460         NaN 
## # ℹ 139 more rows
…
Filtering age less than and equals to 21

covar_clean <- covar_df |>
  filter(age >= 21) |>
  drop_na(sex, education, age, bmi)
covar_clean

## # A tibble: 228 × 5
##     seqn   sex   age   bmi education
##    <dbl> <dbl> <dbl> <dbl>     <dbl>
##  1 62161     1    22  23.3         2
##  2 62164     2    44  23.2         3
##  3 62169     1    21  20.1         2
##  4 62174     1    80  33.9         3
##  5 62177     1    51  20.1         2
##  6 62178     1    80  28.5         2
##  7 62180     1    35  27.9         3
##  8 62184     1    26  22.1         2
##  9 62189     2    30  22.4         3
## 10 62199     1    57  28           3
## # ℹ 218 more rows
…
final_df <- covar_clean |>
   mutate(
    sex = factor(as.integer(sex),
                 levels = c(1, 2),
                 labels = c("Male", "Female")),
    education = factor(as.integer(education),
                       levels = c(1, 2, 3),
                       labels = c("Less than High School",
                                  "High School Equivalent",
                                  "More than High School"))
    ) 
final_df

## # A tibble: 228 × 5
##     seqn sex      age   bmi education             
##    <dbl> <fct>  <dbl> <dbl> <fct>                 
##  1 62161 Male      22  23.3 High School Equivalent
##  2 62164 Female    44  23.2 More than High School 
##  3 62169 Male      21  20.1 High School Equivalent
##  4 62174 Male      80  33.9 More than High School 
##  5 62177 Male      51  20.1 High School Equivalent
##  6 62178 Male      80  28.5 High School Equivalent
##  7 62180 Male      35  27.9 More than High School 
##  8 62184 Male      26  22.1 High School Equivalent
##  9 62189 Female    30  22.4 More than High School 
## 10 62199 Male      57  28   More than High School 
## # ℹ 218 more rows
…
accel_long <- accel_df |>
  rename(seqn = seqn) |>
  pivot_longer(
    cols = -seqn,
    names_to  = "minute",
    values_to = "mims"
  ) |>
  mutate(
    minute = readr::parse_number(minute),
    mims   = as.numeric(mims)
  ) |>
  arrange(seqn, minute)
accel_long

## # A tibble: 360,000 × 3
##     seqn minute  mims
##    <dbl>  <dbl> <dbl>
##  1 62161      1 1.11 
##  2 62161      2 3.12 
##  3 62161      3 1.47 
##  4 62161      4 0.938
##  5 62161      5 1.60 
##  6 62161      6 0.145
##  7 62161      7 2.10 
##  8 62161      8 0.509
##  9 62161      9 1.63 
## 10 62161     10 1.20 
## # ℹ 359,990 more rows

Merge the minute observations and demographics

final_long <- accel_long |>
  inner_join(final_df, by = "seqn")
final_long

## # A tibble: 328,320 × 7
##     seqn minute  mims sex     age   bmi education             
##    <dbl>  <dbl> <dbl> <fct> <dbl> <dbl> <fct>                 
##  1 62161      1 1.11  Male     22  23.3 High School Equivalent
##  2 62161      2 3.12  Male     22  23.3 High School Equivalent
##  3 62161      3 1.47  Male     22  23.3 High School Equivalent
##  4 62161      4 0.938 Male     22  23.3 High School Equivalent
##  5 62161      5 1.60  Male     22  23.3 High School Equivalent
##  6 62161      6 0.145 Male     22  23.3 High School Equivalent
##  7 62161      7 2.10  Male     22  23.3 High School Equivalent
##  8 62161      8 0.509 Male     22  23.3 High School Equivalent
##  9 62161      9 1.63  Male     22  23.3 High School Equivalent
## 10 62161     10 1.20  Male     22  23.3 High School Equivalent
## # ℹ 328,310 more rows
…
